{
  "name": "",
  "css_prefix_text": "icon-",
  "css_use_suffix": false,
  "hinting": true,
  "units_per_em": 1000,
  "ascent": 850,
  "glyphs": [
    {
      "uid": "4c1ef492f1d2c39a2250ae457cee2a6e",
      "css": "instagram",
      "code": 61805,
      "src": "fontawesome"
    },
    {
      "uid": "906348dc798a0d42715cc97c875e3ac6",
      "css": "twitter",
      "code": 62212,
      "src": "fontawesome"
    },
    {
      "uid": "e331ff486a299c6bdf0056426c8fac53",
      "css": "youtube",
      "code": 61798,
      "src": "fontawesome"
    },
    {
      "uid": "79689c4c425b7cdaa2746f510e81e27a",
      "css": "pinterest",
      "code": 61651,
      "src": "fontawesome"
    },
    {
      "uid": "f0cf7db1b03cb65adc450aa3bdaf8c4d",
      "css": "gplus",
      "code": 61652,
      "src": "fontawesome"
    },
    {
      "uid": "17c21cd98db80e521e573eba247bd69b",
      "css": "mail",
      "code": 61849,
      "src": "fontawesome"
    },
    {
      "uid": "559647a6f430b3aeadbecd67194451dd",
      "css": "menu",
      "code": 61641,
      "src": "fontawesome"
    },
    {
      "uid": "f11c9e95ae5eaa84d193e8fa1d38c6f9",
      "css": "down",
      "code": 59396,
      "src": "entypo"
    },
    {
      "uid": "592717bd601645d61517d2a584d04127",
      "css": "left",
      "code": 59397,
      "src": "entypo"
    },
    {
      "uid": "37f6cfbb4062ed0d01b351ec35c334ff",
      "css": "right",
      "code": 59398,
      "src": "entypo"
    },
    {
      "uid": "9e251fb8e9e1c71ab09683468e0479a3",
      "css": "up",
      "code": 59399,
      "src": "entypo"
    },
    {
      "uid": "9a76bc135eac17d2c8b8ad4a5774fc87",
      "css": "download",
      "code": 59392,
      "src": "fontawesome"
    },
    {
      "uid": "1d35198f5190ec004dd4ec742fbe19ca",
      "css": "right-1",
      "code": 59393,
      "src": "mfglabs"
    },
    {
      "uid": "555ef8c86832e686fef85f7af2eb7cde",
      "css": "left-big",
      "code": 59394,
      "src": "fontawesome"
    },
    {
      "uid": "3d99d345645f43e31e9e0fd48be37e9c",
      "css": "left-hand",
      "code": 59395,
      "src": "fontawesome"
    },
    {
      "uid": "745f12abe1472d14f8f658de7e5aba66",
      "css": "angle-double-left",
      "code": 61696,
      "src": "fontawesome"
    },
    {
      "uid": "f6d72aa5ef8e8f0e553012af9a29a87e",
      "css": "left-1",
      "code": 61815,
      "src": "fontawesome"
    },
    {
      "uid": "c21d309f797d3644dc8d28c4617738ce",
      "css": "left-2",
      "code": 59400,
      "src": "mfglabs"
    },
    {
      "uid": "91426c82d94428a33353e495418435e3",
      "css": "share",
      "code": 59401,
      "src": "entypo"
    },
    {
      "uid": "06301c50d89b5d3e651bd07ebd6d7de7",
      "css": "cancel",
      "code": 59402,
      "src": "mfglabs"
    },
    {
      "uid": "4743b088aa95d6f3b6b990e770d3b647",
      "css": "facebook",
      "code": 62216,
      "src": "fontawesome"
    },
    {
      "uid": "9d3e9faf68fd4e12def853f0d4e1173b",
      "css": "whatsapp",
      "code": 62002,
      "src": "fontawesome"
    },
    {
      "uid": "df6c6001ebcc7eaf3d2295810234ae00",
      "css": "delete",
      "code": 59403,
      "src": "custom_icons",
      "selected": true,
      "svg": {
        "path": "M777.8 55.6H583.3L527.8 0H250L194.4 55.6H0V166.7H777.8M55.6 888.9A111.1 111.1 0 0 0 166.7 1000H611.1A111.1 111.1 0 0 0 722.2 888.9V222.2H55.6Z",
        "width": 778
      },
      "search": [
        "delete"
      ]
    },
    {
      "uid": "8e04c98c8f5ca0a035776e3001ad2638",
      "css": "facebook-1",
      "code": 61594,
      "src": "fontawesome"
    },
    {
      "uid": "47a1f80457068fbeab69fdb83d7d0817",
      "css": "youtube-play",
      "code": 61802,
      "src": "fontawesome"
    },
    {
      "uid": "627abcdb627cb1789e009c08e2678ef9",
      "css": "twitter-1",
      "code": 61593,
      "src": "fontawesome"
    },
    {
      "uid": "e9107949dd6c9e8ab2b29ae07156e38c",
      "css": "linkedin-1",
      "code": 61665,
      "src": "fontawesome"
    },
    {
      "uid": "70370693ada58ef0a60fa0984fe8d52a",
      "css": "plus",
      "code": 59404,
      "src": "entypo"
    },
    {
      "uid": "5211af474d3a9848f67f945e2ccaf143",
      "css": "cancel-1",
      "code": 59405,
      "src": "fontawesome"
    },
    {
      "uid": "1145676a91138011729fa2909997af66",
      "css": "linkedin-squared",
      "code": 62220,
      "src": "fontawesome"
    },
    {
      "uid": "ff6c1d16499c2c065d74854cd971d783",
      "css": "quote",
      "code": 59394,
      "src": "custom_icons",
      "selected": false,
      "svg": {
        "path": "",
        "width": 1216
      },
      "search": [
        "quote"
      ]
    }
  ]
}